…
You should now have a object called `austraits` with the following elements:

[1] "traits"        "sites"         "methods"       "excluded_data"
[5] "taxonomy"      "definitions"   "sources"       "build_info"   

These names correspond to the sections described in full above under ["elements of austraits"](#elements_of_austraits). 

The trait data are in the element called data


```
## # A tibble: 389,875 x 10
##    dataset_id species_name site_name observation_id trait_name value unit 
##    <chr>      <chr>        <chr>     <chr>          <chr>      <chr> <chr>
##  1 ANBG_2018  Abelmoschus… <NA>      ANBG_2018_0001 seed_shape sphe… <NA> 
##  2 ANBG_2018  Abrophyllum… <NA>      ANBG_2018_0002 seed_mass  46.3… mg   
##  3 ANBG_2018  Abrotanella… <NA>      ANBG_2018_0003 seed_mass  0.31… mg   
##  4 ANBG_2018  Abutilon in… <NA>      ANBG_2018_0004 seed_mass  4.022 mg   
##  5 ANBG_2018  Abutilon ha… <NA>      ANBG_2018_0005 seed_mass  3.56… mg   
##  6 ANBG_2018  Abutilon ot… <NA>      ANBG_2018_0006 seed_shape cord… <NA> 
##  7 ANBG_2018  Acacia abbr… <NA>      ANBG_2018_0007 seed_mass  6.15  mg   
##  8 ANBG_2018  Acacia acin… <NA>      ANBG_2018_0008 dispersal… aril  <NA> 
##  9 ANBG_2018  Acacia acin… <NA>      ANBG_2018_0008 seed_mass  7.313 mg   
## 10 ANBG_2018  Acacia acin… <NA>      ANBG_2018_0008 seed_shape glob… <NA> 
## # … with 389,865 more rows, and 3 more variables: value_type <fct>,
## #   replicates <chr>, original_name <chr>
```
…
## Taking subsets

Using the `dplyr`, it's easy to subset by rows using `filter`. This approach can be used to filter the data to particular trait or study:


```r
austraits$traits %>% 
  filter(trait_name == "leaf_area")
```

```
## # A tibble: 12,446 x 10
##    dataset_id species_name site_name observation_id trait_name value unit 
##    <chr>      <chr>        <chr>     <chr>          <chr>      <chr> <chr>
##  1 Angevin_2… Acaena echi… <NA>      Angevin_2010_… leaf_area  835.… mm2  
##  2 Angevin_2… Ajuga austr… <NA>      Angevin_2010_… leaf_area  300.… mm2  
##  3 Angevin_2… Dichopogon … <NA>      Angevin_2010_… leaf_area  129.… mm2  
##  4 Angevin_2… Asperula co… <NA>      Angevin_2010_… leaf_area  3.307 mm2  
##  5 Angevin_2… Astroloma c… <NA>      Angevin_2010_… leaf_area  44.33 mm2  
##  6 Angevin_2… Astroloma h… <NA>      Angevin_2010_… leaf_area  53.18 mm2  
##  7 Angevin_2… Stipa semib… <NA>      Angevin_2010_… leaf_area  864.… mm2  
##  8 Angevin_2… Brunonia au… <NA>      Angevin_2010_… leaf_area  488.… mm2  
##  9 Angevin_2… Bulbine bul… <NA>      Angevin_2010_… leaf_area  923.… mm2  
## 10 Angevin_2… Caesia call… <NA>      Angevin_2010_… leaf_area  2960… mm2  
## # … with 12,436 more rows, and 3 more variables: value_type <fct>,
## #   replicates <chr>, original_name <chr>
```


```r
austraits$traits %>% 
  filter(dataset_id == "Westoby_2014")
```

```
## # A tibble: 2,633 x 10
##    dataset_id species_name site_name observation_id trait_name value unit 
##    <chr>      <chr>        <chr>     <chr>          <chr>      <chr> <chr>
##  1 Westoby_2… Acacia deal… Bothwell  Westoby_2014_… bark_thic… 0.21… mm   
##  2 Westoby_2… Acacia deal… Bothwell  Westoby_2014_… leaf_area  6575  mm2  
##  3 Westoby_2… Acacia deal… Bothwell  Westoby_2014_… leaf_area… 1215… m2/m2
##  4 Westoby_2… Acacia deal… Bothwell  Westoby_2014_… leaf_dark… 1.96  umol…
##  5 Westoby_2… Acacia deal… Bothwell  Westoby_2014_… leaf_dark… 0.02… umol…
##  6 Westoby_2… Acacia deal… Bothwell  Westoby_2014_… leaf_delt… -28.… per …
##  7 Westoby_2… Acacia deal… Bothwell  Westoby_2014_… leaf_K_pe… 8.63… mg/g 
##  8 Westoby_2… Acacia deal… Bothwell  Westoby_2014_… leaf_N_pe… 25.1… mg/g 
##  9 Westoby_2… Acacia deal… Bothwell  Westoby_2014_… leaf_P_pe… 0.92… mg/g 
## 10 Westoby_2… Acacia deal… Bothwell  Westoby_2014_… leaf_tran… 2.359 mmol…
## # … with 2,623 more rows, and 3 more variables: value_type <fct>,
## #   replicates <chr>, original_name <chr>
```

`filter` can also be used to select observations for a specific string of text, such as a single genus:


```r
austraits$traits %>% 
  filter(grepl("Daviesia", species_name))
```

```
## # A tibble: 3,268 x 10
##    dataset_id species_name site_name observation_id trait_name value unit 
##    <chr>      <chr>        <chr>     <chr>          <chr>      <chr> <chr>
##  1 ANBG_2018  Daviesia ab… <NA>      ANBG_2018_0683 seed_mass  2.569 mg   
##  2 ANBG_2018  Daviesia bu… <NA>      ANBG_2018_0684 dispersal… aril  <NA> 
##  3 ANBG_2018  Daviesia bu… <NA>      ANBG_2018_0684 seed_shape reni… <NA> 
##  4 ANBG_2018  Daviesia co… <NA>      ANBG_2018_0685 seed_mass  7.77… mg   
##  5 ANBG_2018  Daviesia ep… <NA>      ANBG_2018_0686 seed_mass  69.6… mg   
##  6 ANBG_2018  Daviesia ge… <NA>      ANBG_2018_0687 dispersal… aril  <NA> 
##  7 ANBG_2018  Daviesia ge… <NA>      ANBG_2018_0687 seed_mass  11.6… mg   
##  8 ANBG_2018  Daviesia ge… <NA>      ANBG_2018_0687 seed_mass  9.9   mg   
##  9 ANBG_2018  Daviesia ge… <NA>      ANBG_2018_0687 seed_mass  11.4  mg   
## 10 ANBG_2018  Daviesia ge… <NA>      ANBG_2018_0687 seed_mass  10.4… mg   
## # … with 3,258 more rows, and 3 more variables: value_type <fct>,
## #   replicates <chr>, original_name <chr>
```

We can select particular columns from the whole or filtered dataset using `select`:


```r
austraits$traits %>% 
  select(species_name, observation_id, trait_name, value)
```

```
## # A tibble: 389,875 x 4
##    species_name                   observation_id trait_name        value   
##    <chr>                          <chr>          <chr>             <chr>   
##  1 Abelmoschus ficulneus          ANBG_2018_0001 seed_shape        spheroi…
##  2 Abrophyllum ornans             ANBG_2018_0002 seed_mass         46.345  
##  3 Abrotanella nivigena           ANBG_2018_0003 seed_mass         0.3125  
##  4 Abutilon indicum var. austral… ANBG_2018_0004 seed_mass         4.022   
##  5 Abutilon halophilum            ANBG_2018_0005 seed_mass         3.5625  
##  6 Abutilon otocarpum             ANBG_2018_0006 seed_shape        cordifo…
##  7 Acacia abbreviata              ANBG_2018_0007 seed_mass         6.15    
##  8 Acacia acinacea                ANBG_2018_0008 dispersal_append… aril    
##  9 Acacia acinacea                ANBG_2018_0008 seed_mass         7.313   
## 10 Acacia acinacea                ANBG_2018_0008 seed_shape        globose 
## # … with 389,865 more rows
```
…
```
## [1] 36544   503 13557
```

## Merging with taxonomic data

Limited taxonomic information is provided in the main table `data`, only `original_name` (the original name provided by the authors) and `species_name` (the aligned taxonomic name; see [species taxonomy](#species_taxonomy) for details). But further information is available in the table `taxonomy`:


```r
austraits$taxonomy
```

```
## # A tibble: 21,396 x 9
##    species_name genus family authority TPL_ID status APC_name APC_ID
##    <chr>        <chr> <chr>  <chr>     <chr>  <chr>  <chr>    <chr> 
##  1 Abelmoschus  Abel… Malva… <NA>      <NA>   <NA>   <NA>     <NA>  
##  2 Abelmoschus… Abel… Malva… (L.) Wig… kew-2… Accep… Abelmos… 28979…
##  3 Abelmoschus… Abel… Malva… (L.) Med… kew-2… Accep… Abelmos… 29010…
##  4 Abelmoschus… Abel… Malva… Medik.    kew-2… Accep… Abelmos… 29005…
##  5 Abroma augu… Abro… Malva… (L.) L.f. kew-2… Accep… Abroma … 29048…
##  6 Abrophyllum… Abro… Rouss… (F.Muell… kew-2… Accep… Abrophy… 28936…
##  7 Abrotanella… Abro… Compo… (F.Muell… gcc-3… Accep… Abrotan… 29005…
##  8 Abrus preca… Abrus Legum… L.        ild-2… Accep… Abrus p… 29193…
##  9 Abrus preca… Abrus Legum… Verdc.    ild-2… Accep… Abrus p… 29161…
## 10 Abutilon     Abut… Malva… <NA>      <NA>   <NA>   <NA>     <NA>  
## # … with 21,386 more rows, and 1 more variable: APNI_ID <chr>
```
…
## Merging with location data

As with taxonomic information, limited information about location is provided in the main table `data`.  But further information is available in the table `context`:


```r
austraits$sites
```

```
## # A tibble: 2,716 x 4
##    dataset_id    site_name    site_property   value             
##    <chr>         <chr>        <chr>           <chr>             
##  1 Blackman_2010 Mt Field_dry latitude (deg)  -42.68            
##  2 Blackman_2010 Mt Field_dry longitude (deg) 146.6336          
##  3 Blackman_2010 Mt Field_dry elevation (m)   937               
##  4 Blackman_2010 Mt Field_dry description     Dry sclerophyll   
##  5 Blackman_2010 Mt Field_wet latitude (deg)  -42.68            
##  6 Blackman_2010 Mt Field_wet longitude (deg) 146.6336          
##  7 Blackman_2010 Mt Field_wet elevation (m)   937               
##  8 Blackman_2010 Mt Field_wet description     Montane rainforest
##  9 Blackman_2010 Sandy Bay    latitude (deg)  -42.907           
## 10 Blackman_2010 Sandy Bay    longitude (deg) 147.3239          
## # … with 2,706 more rows
```
…
In this example we'll just focus on location details. Before merging in with the main data table let's convert this data from long to wide format:


```r
sites <- austraits$sites %>% 
  filter(site_property %in%  c("longitude (deg)","latitude (deg)")) %>% 
  spread(site_property, value)
sites
```

```
## # A tibble: 445 x 4
##    dataset_id    site_name                `latitude (deg)` `longitude (deg…
##    <chr>         <chr>                    <chr>            <chr>           
##  1 Blackman_2010 Buckland                 -42.61           147.707         
##  2 Blackman_2010 Mt Field_dry             -42.68           146.6336        
##  3 Blackman_2010 Mt Field_wet             -42.68           146.6336        
##  4 Blackman_2010 Ridgeway                 -42.915          147.2931        
##  5 Blackman_2010 Sandy Bay                -42.907          147.3239        
##  6 Bragg_2002    Ku-ring-gai Chase Natio… -33.6938889      151.1430556     
##  7 Briggs_2010   Terrick Terrick Nationa… -36.1738         144.227         
##  8 Burrows_2001  The Rock                 -35.2666667      147.0666667     
##  9 Butler_2011   arid                     -18.7            141.79          
## 10 Butler_2011   dry                      -18.3            145.49          
## # … with 435 more rows
```
…
For many analyses, however, you'll want to use wide format. We have therefore provided the ability to convert between the two formats. In wide format, each trait appears in it's own column and measurements from the same observation (ideally individual, but in floras may be a species) appear on the same row.  

As the entire austraits dataset is quite large, we recommend first sub-setting the data before spreading from long to wide format. You may also need to reduce the number of measurements in any one observation (see next section). For this first example we'll use the dataset `Westoby_2014`. 

First extract the trait data from the `Westoby_2014` study:


```r
data <- austraits$traits %>% 
  filter(dataset_id == "Westoby_2014")
data
```

```
## # A tibble: 2,633 x 10
##    dataset_id species_name site_name observation_id trait_name value unit 
##    <chr>      <chr>        <chr>     <chr>          <chr>      <chr> <chr>
##  1 Westoby_2… Acacia deal… Bothwell  Westoby_2014_… bark_thic… 0.21… mm   
##  2 Westoby_2… Acacia deal… Bothwell  Westoby_2014_… leaf_area  6575  mm2  
##  3 Westoby_2… Acacia deal… Bothwell  Westoby_2014_… leaf_area… 1215… m2/m2
##  4 Westoby_2… Acacia deal… Bothwell  Westoby_2014_… leaf_dark… 1.96  umol…
##  5 Westoby_2… Acacia deal… Bothwell  Westoby_2014_… leaf_dark… 0.02… umol…
##  6 Westoby_2… Acacia deal… Bothwell  Westoby_2014_… leaf_delt… -28.… per …
##  7 Westoby_2… Acacia deal… Bothwell  Westoby_2014_… leaf_K_pe… 8.63… mg/g 
##  8 Westoby_2… Acacia deal… Bothwell  Westoby_2014_… leaf_N_pe… 25.1… mg/g 
##  9 Westoby_2… Acacia deal… Bothwell  Westoby_2014_… leaf_P_pe… 0.92… mg/g 
## 10 Westoby_2… Acacia deal… Bothwell  Westoby_2014_… leaf_tran… 2.359 mmol…
## # … with 2,623 more rows, and 3 more variables: value_type <fct>,
## #   replicates <chr>, original_name <chr>
```
…
```r
names(traits_spread)
```

```
## [1] "value"      "unit"       "value_type" "replicates"
```
Looking at each of these we see a table in wide format (i.e. with each trait being a column), as well as identifying columns at the start:

```r
traits_spread$value
```

```
## # A tibble: 140 x 27
##    dataset_id species_name site_name observation_id original_name
##    <chr>      <chr>        <chr>     <chr>          <chr>        
##  1 Westoby_2… Acacia aneu… Fowlers … Westoby_2014_… Acacia aneura
##  2 Westoby_2… Acacia coll… Round Hi… Westoby_2014_… Acacia colle…
##  3 Westoby_2… Acacia cras… Cardwell  Westoby_2014_… Acacia crass…
##  4 Westoby_2… Acacia deal… Bothwell  Westoby_2014_… Acacia dealb…
##  5 Westoby_2… Acacia deal… Longley   Westoby_2014_… Acacia dealb…
##  6 Westoby_2… Acacia flav… Cardwell  Westoby_2014_… Acacia flave…
##  7 Westoby_2… Acacia flav… Princess… Westoby_2014_… Acacia flave…
##  8 Westoby_2… Acacia havi… Round Hi… Westoby_2014_… Acacia havil…
##  9 Westoby_2… Acacia holo… Claravil… Westoby_2014_… Acacia holos…
## 10 Westoby_2… Acacia lept… Princess… Westoby_2014_… Acacia lepto…
## # … with 130 more rows, and 22 more variables: bark_thickness <chr>,
## #   leaf_area <chr>, leaf_area_per_sapwood_area <chr>,
## #   leaf_dark_respiration_per_area <chr>,
## #   leaf_dark_respiration_per_dry_mass <chr>, leaf_delta13C <chr>,
## #   leaf_K_per_dry_mass <chr>, leaf_N_per_dry_mass <chr>,
## #   leaf_P_per_dry_mass <chr>, leaf_specific_conductivity <chr>,
## #   leaf_transpiration <chr>, modulus_of_elasticity <chr>,
## #   modulus_of_rupture <chr>, photosynthetic_rate_per_area <chr>,
## #   photosynthetic_rate_per_dry_mass <chr>, plant_height <chr>,
## #   sapwood_specific_conductivity <chr>, specific_leaf_area <chr>,
## #   water_potential_midday <chr>, water_potential_predawn <chr>,
## #   water_use_efficiency <chr>, wood_density <chr>
```
The other tables have an identical format


```r
traits_spread$unit
```

```
## # A tibble: 140 x 27
##    dataset_id species_name site_name observation_id original_name
##    <chr>      <chr>        <chr>     <chr>          <chr>        
##  1 Westoby_2… Acacia aneu… Fowlers … Westoby_2014_… Acacia aneura
##  2 Westoby_2… Acacia coll… Round Hi… Westoby_2014_… Acacia colle…
##  3 Westoby_2… Acacia cras… Cardwell  Westoby_2014_… Acacia crass…
##  4 Westoby_2… Acacia deal… Bothwell  Westoby_2014_… Acacia dealb…
##  5 Westoby_2… Acacia deal… Longley   Westoby_2014_… Acacia dealb…
##  6 Westoby_2… Acacia flav… Cardwell  Westoby_2014_… Acacia flave…
##  7 Westoby_2… Acacia flav… Princess… Westoby_2014_… Acacia flave…
##  8 Westoby_2… Acacia havi… Round Hi… Westoby_2014_… Acacia havil…
##  9 Westoby_2… Acacia holo… Claravil… Westoby_2014_… Acacia holos…
## 10 Westoby_2… Acacia lept… Princess… Westoby_2014_… Acacia lepto…
## # … with 130 more rows, and 22 more variables: bark_thickness <chr>,
## #   leaf_area <chr>, leaf_area_per_sapwood_area <chr>,
## #   leaf_dark_respiration_per_area <chr>,
## #   leaf_dark_respiration_per_dry_mass <chr>, leaf_delta13C <chr>,
## #   leaf_K_per_dry_mass <chr>, leaf_N_per_dry_mass <chr>,
## #   leaf_P_per_dry_mass <chr>, leaf_specific_conductivity <chr>,
## #   leaf_transpiration <chr>, modulus_of_elasticity <chr>,
## #   modulus_of_rupture <chr>, photosynthetic_rate_per_area <chr>,
## #   photosynthetic_rate_per_dry_mass <chr>, plant_height <chr>,
…
```r
traits2 <- gather_trait_data(traits_spread, austraits$definitions)
```

This manipulation should recover the original dataset.

Original:

```r
traits2
```

```
## # A tibble: 2,633 x 10
##    dataset_id species_name site_name observation_id trait_name value unit 
##    <chr>      <chr>        <chr>     <chr>          <chr>      <chr> <chr>
##  1 Westoby_2… Acacia deal… Bothwell  Westoby_2014_… bark_thic… 0.21… mm   
##  2 Westoby_2… Acacia deal… Bothwell  Westoby_2014_… leaf_area  6575  mm2  
##  3 Westoby_2… Acacia deal… Bothwell  Westoby_2014_… leaf_area… 1215… m2/m2
##  4 Westoby_2… Acacia deal… Bothwell  Westoby_2014_… leaf_dark… 1.96  umol…
##  5 Westoby_2… Acacia deal… Bothwell  Westoby_2014_… leaf_dark… 0.02… umol…
##  6 Westoby_2… Acacia deal… Bothwell  Westoby_2014_… leaf_delt… -28.… per …
##  7 Westoby_2… Acacia deal… Bothwell  Westoby_2014_… leaf_K_pe… 8.63… mg/g 
##  8 Westoby_2… Acacia deal… Bothwell  Westoby_2014_… leaf_N_pe… 25.1… mg/g 
##  9 Westoby_2… Acacia deal… Bothwell  Westoby_2014_… leaf_P_pe… 0.92… mg/g 
## 10 Westoby_2… Acacia deal… Bothwell  Westoby_2014_… leaf_tran… 2.359 mmol…
## # … with 2,623 more rows, and 3 more variables: value_type <chr>,
## #   replicates <chr>, original_name <chr>
```
After conversion

```r
data
```

```
## # A tibble: 2,633 x 10
##    dataset_id species_name site_name observation_id trait_name value unit 
##    <chr>      <chr>        <chr>     <chr>          <chr>      <chr> <chr>
##  1 Westoby_2… Acacia deal… Bothwell  Westoby_2014_… bark_thic… 0.21… mm   
##  2 Westoby_2… Acacia deal… Bothwell  Westoby_2014_… leaf_area  6575  mm2  
##  3 Westoby_2… Acacia deal… Bothwell  Westoby_2014_… leaf_area… 1215… m2/m2
##  4 Westoby_2… Acacia deal… Bothwell  Westoby_2014_… leaf_dark… 1.96  umol…
##  5 Westoby_2… Acacia deal… Bothwell  Westoby_2014_… leaf_dark… 0.02… umol…
##  6 Westoby_2… Acacia deal… Bothwell  Westoby_2014_… leaf_delt… -28.… per …
##  7 Westoby_2… Acacia deal… Bothwell  Westoby_2014_… leaf_K_pe… 8.63… mg/g 
##  8 Westoby_2… Acacia deal… Bothwell  Westoby_2014_… leaf_N_pe… 25.1… mg/g 
##  9 Westoby_2… Acacia deal… Bothwell  Westoby_2014_… leaf_P_pe… 0.92… mg/g 
## 10 Westoby_2… Acacia deal… Bothwell  Westoby_2014_… leaf_tran… 2.359 mmol…
## # … with 2,623 more rows, and 3 more variables: value_type <fct>,
## #   replicates <chr>, original_name <chr>
```
…
Note that the function `gather_trait_data` also needs the element `austraits$definitions` to run successfully. 

### Datasets with multiple measurements per observation

The above example works easily because there is only a single measurement of each trait per `observation_id`. But this is not always the case. Many datasets include multiple records per `observation_id`, for example studies reporting multiple `value_types` per `observation_id`. An example is the `AusGrass_2014` datasets:


```r
traits <- austraits$traits %>% 
  filter(dataset_id == "AusGrass_2014")
traits
```

```
## # A tibble: 5,528 x 10
##    dataset_id species_name site_name observation_id trait_name value unit 
##    <chr>      <chr>        <chr>     <chr>          <chr>      <chr> <chr>
##  1 AusGrass_… Stipa aquar… <NA>      AusGrass_2014… leaf_leng… 300   mm   
##  2 AusGrass_… Stipa aquar… <NA>      AusGrass_2014… leaf_leng… 600   mm   
##  3 AusGrass_… Stipa aquar… <NA>      AusGrass_2014… leaf_width 1     mm   
##  4 AusGrass_… Stipa aquar… <NA>      AusGrass_2014… leaf_width 2     mm   
##  5 AusGrass_… Stipa aquar… <NA>      AusGrass_2014… life_hist… pere… <NA> 
##  6 AusGrass_… Stipa aquar… <NA>      AusGrass_2014… plant_hei… 0.5   m    
##  7 AusGrass_… Stipa aquar… <NA>      AusGrass_2014… plant_hei… 1     m    
##  8 AusGrass_… Stipa aquar… <NA>      AusGrass_2014… seed_leng… 2     mm   
##  9 AusGrass_… Stipa aquar… <NA>      AusGrass_2014… seed_leng… 2.5   mm   
## 10 AusGrass_… Stipa arist… <NA>      AusGrass_2014… leaf_leng… 200   mm   
## # … with 5,518 more rows, and 3 more variables: value_type <fct>,
## #   replicates <chr>, original_name <chr>
```
…
