Adding data to AusTraits • austraits.build
…
Unsupported trait: trait_name not listed in config/definitions.yml, under traits

Unsupported trait value: For categorical traits, value for trait not included for that trait in config/definitions.yml

Value does not convert to numeric: Is there a strange character in the file preventing easy conversion?

Value out of allowable range: Converted value falls outside of the allowable range specified for that trait in `config/definitions.ym

For your dataset, you can investigate why you have excluded data as follows.

Look at everything

austraits$excluded_data %>% 
  filter(dataset_id=="ANBG_2019")
#> # A tibble: 2,032 x 12
#>    error dataset_id species_name site_name context_name observation_id
#>    <chr> <chr>      <chr>        <chr>     <chr>        <chr>         
#>  1 Unsu… ANBG_2019  Abelmoschus… site_at_… <NA>         ANBG_2019_0001
#>  2 Unsu… ANBG_2019  Abelmoschus… site_at_… <NA>         ANBG_2019_0001
#>  3 Unsu… ANBG_2019  Abutilon ot… site_at_… <NA>         ANBG_2019_0010
#>  4 Unsu… ANBG_2019  Abutilon ot… site_at_… <NA>         ANBG_2019_0010
#>  5 Unsu… ANBG_2019  Acacia acin… site_at_… <NA>         ANBG_2019_0012
#>  6 Unsu… ANBG_2019  Acacia acin… site_at_… <NA>         ANBG_2019_0012
#>  7 Unsu… ANBG_2019  Acacia acum… site_at_… <NA>         ANBG_2019_0017
#>  8 Unsu… ANBG_2019  Acacia acum… site_at_… <NA>         ANBG_2019_0017
#>  9 Unsu… ANBG_2019  Acacia adsu… site_at_… <NA>         ANBG_2019_0019
#> 10 Unsu… ANBG_2019  Acacia adsu… site_at_… <NA>         ANBG_2019_0019
#> # … with 2,022 more rows, and 6 more variables: trait_name <chr>, value <chr>,
#> #   unit <chr>, value_type <fct>, replicates <chr>, original_name <chr>
…
