• austraits.build
…
Unsupported trait: trait_name not listed in config/definitions.yml, under traits

Unsupported trait value: For categorical traits, value for trait not included for that trait in config/definitions.yml

Value does not convert to numeric: Is there a strange character in the file preventing easy conversion?

Value out of allowable range: Converted value falls outside of the allowable range specified for that trait in `config/definitions.ym

For your dataset, you can investigate why you have excluded data as follows.

Look at everything

austraits$excluded_data %>% 
  filter(dataset_id=="ANBG_2019")
#> # A tibble: 2,043 x 11
#>    error dataset_id species_name site_name observation_id trait_name value unit 
#>    <chr> <chr>      <chr>        <chr>     <chr>          <chr>      <chr> <chr>
#>  1 Unsu… ANBG_2019  Abelmoschus… site_at_… ANBG_2019_0001 LengthSam… 7     <NA> 
#>  2 Unsu… ANBG_2019  Abelmoschus… site_at_… ANBG_2019_0001 WidthSamp… 7     <NA> 
#>  3 Unsu… ANBG_2019  Abutilon ot… site_at_… ANBG_2019_0010 LengthSam… 20    <NA> 
#>  4 Unsu… ANBG_2019  Abutilon ot… site_at_… ANBG_2019_0010 WidthSamp… 20    <NA> 
#>  5 Unsu… ANBG_2019  Acacia acin… site_at_… ANBG_2019_0012 LengthSam… 21    <NA> 
#>  6 Unsu… ANBG_2019  Acacia acin… site_at_… ANBG_2019_0012 WidthSamp… 22    <NA> 
#>  7 Unsu… ANBG_2019  Acacia acum… site_at_… ANBG_2019_0017 LengthSam… 9     <NA> 
#>  8 Unsu… ANBG_2019  Acacia acum… site_at_… ANBG_2019_0017 WidthSamp… 9     <NA> 
#>  9 Unsu… ANBG_2019  Acacia adsu… site_at_… ANBG_2019_0019 LengthSam… 11    <NA> 
#> 10 Unsu… ANBG_2019  Acacia adsu… site_at_… ANBG_2019_0019 WidthSamp… 11    <NA> 
#> # … with 2,033 more rows, and 3 more variables: value_type <fct>,
#> #   replicates <chr>, original_name <chr>
…
