Building of the `AusTraits` data compilation • austraits.build
…
These instructions are written assuming you have followed the latter approach.

Let’s assume you have a variable path with the directory of your data. You can then load the AusTraits data package using the readRDS package

You should now have a object called austraits with the following elements:

[1] “traits” “sites” “methods” “excluded_data” [5] “taxonomy” “definitions” “contributors” “sources”

[9] “build_info”

These names correspond to the sections described in full above under “elements of austraits”.

The trait data are in the element called data

## # A tibble: 484,158 x 10
##    dataset_id species_name site_name observation_id trait_name value unit 
##    <chr>      <chr>        <chr>     <chr>          <chr>      <chr> <chr>
##  1 Ahrens_20… Corymbia ca… BOO       Ahrens_2019_0… leaf_area  1288… mm2  
##  2 Ahrens_20… Corymbia ca… BOO       Ahrens_2019_0… leaf_delt… -27.… per …
##  3 Ahrens_20… Corymbia ca… BOO       Ahrens_2019_0… leaf_N_pe… 9     mg/g 
##  4 Ahrens_20… Corymbia ca… BOO       Ahrens_2019_0… modified_… 0.71… dime…
##  5 Ahrens_20… Corymbia ca… BOO       Ahrens_2019_0… specific_… 5.4   mm2/…
##  6 Ahrens_20… Corymbia ca… BOO       Ahrens_2019_0… water_ban… 1.06… dime…
##  7 Ahrens_20… Corymbia ca… BOO       Ahrens_2019_0… wood_dens… 0.60… mg/m…
##  8 Ahrens_20… Corymbia ca… BOO       Ahrens_2019_0… leaf_area  9647… mm2  
##  9 Ahrens_20… Corymbia ca… BOO       Ahrens_2019_0… leaf_delt… -27.… per …
## 10 Ahrens_20… Corymbia ca… BOO       Ahrens_2019_0… leaf_N_pe… 16    mg/g 
## # … with 484,148 more rows, and 3 more variables: value_type <fct>,
## #   replicates <chr>, original_name <chr>
…
For anyone needing to learn about the tidyverse, you will in particular want to read up on dplyr and the pipe operator %>% from magrittr, which pipes output from one command into the next command.

In addition, we have included some helper functions for common manipulations of the data. These are available in the file austraits.R (TODO: where will users access this). To make these functions available, source the file prior to use:

source("R/austraits.R")

Taking subsets

Using the dplyr, it’s easy to subset by rows using filter. This approach can be used to filter the data to particular trait or study:

austraits$traits %>% 
  filter(trait_name == "leaf_area")

## # A tibble: 13,895 x 10
##    dataset_id species_name site_name observation_id trait_name value unit 
##    <chr>      <chr>        <chr>     <chr>          <chr>      <chr> <chr>
##  1 Ahrens_20… Corymbia ca… BOO       Ahrens_2019_0… leaf_area  1288… mm2  
##  2 Ahrens_20… Corymbia ca… BOO       Ahrens_2019_0… leaf_area  9647… mm2  
##  3 Ahrens_20… Corymbia ca… BOO       Ahrens_2019_0… leaf_area  1250… mm2  
##  4 Ahrens_20… Corymbia ca… BOO       Ahrens_2019_0… leaf_area  1519… mm2  
##  5 Ahrens_20… Corymbia ca… BOO       Ahrens_2019_0… leaf_area  1094… mm2  
##  6 Ahrens_20… Corymbia ca… BOO       Ahrens_2019_0… leaf_area  2129… mm2  
##  7 Ahrens_20… Corymbia ca… BOO       Ahrens_2019_0… leaf_area  1499… mm2  
##  8 Ahrens_20… Corymbia ca… BOO       Ahrens_2019_0… leaf_area  19767 mm2  
##  9 Ahrens_20… Corymbia ca… BOO       Ahrens_2019_0… leaf_area  2060… mm2  
## 10 Ahrens_20… Corymbia ca… BOO       Ahrens_2019_0… leaf_area  1338… mm2  
## # … with 13,885 more rows, and 3 more variables: value_type <fct>,
## #   replicates <chr>, original_name <chr>

austraits$traits %>% 
  filter(dataset_id == "Westoby_2014")

## # A tibble: 3,888 x 10
##    dataset_id species_name site_name observation_id trait_name value unit 
##    <chr>      <chr>        <chr>     <chr>          <chr>      <chr> <chr>
##  1 Westoby_2… Acacia deal… Bothwell  Westoby_2014_… bark_thic… 0.21… mm   
##  2 Westoby_2… Acacia deal… Bothwell  Westoby_2014_… huber_val… 8.22… mm2_…
##  3 Westoby_2… Acacia deal… Bothwell  Westoby_2014_… leaf_area  6575  mm2  
##  4 Westoby_2… Acacia deal… Bothwell  Westoby_2014_… leaf_B_pe… 21.6… mg/kg
##  5 Westoby_2… Acacia deal… Bothwell  Westoby_2014_… leaf_C_pe… 523.2 mg/g 
##  6 Westoby_2… Acacia deal… Bothwell  Westoby_2014_… leaf_Ca_p… 3.31… mg/g 
##  7 Westoby_2… Acacia deal… Bothwell  Westoby_2014_… leaf_Cu_p… 13.1… mg/kg
##  8 Westoby_2… Acacia deal… Bothwell  Westoby_2014_… leaf_dark… 1.96  umol…
##  9 Westoby_2… Acacia deal… Bothwell  Westoby_2014_… leaf_dark… 0.02… umol…
## 10 Westoby_2… Acacia deal… Bothwell  Westoby_2014_… leaf_delt… -28.… per …
## # … with 3,878 more rows, and 3 more variables: value_type <fct>,
## #   replicates <chr>, original_name <chr>

filter can also be used to select observations for a specific string of text, such as a single genus:

austraits$traits %>% 
  filter(grepl("Daviesia", species_name))

## # A tibble: 3,804 x 10
##    dataset_id species_name site_name observation_id trait_name value unit 
##    <chr>      <chr>        <chr>     <chr>          <chr>      <chr> <chr>
##  1 ANBG_2019  Daviesia ab… site_at_… ANBG_2019_1362 seed_mass  2.569 mg   
##  2 ANBG_2019  Daviesia bu… site_at_… ANBG_2019_1363 dispersal… aril  <NA> 
##  3 ANBG_2019  Daviesia bu… site_at_… ANBG_2019_1363 seed_leng… 2.89  mm   
##  4 ANBG_2019  Daviesia bu… site_at_… ANBG_2019_1363 seed_shape reni… <NA> 
##  5 ANBG_2019  Daviesia bu… site_at_… ANBG_2019_1363 seed_text… smoo… <NA> 
##  6 ANBG_2019  Daviesia bu… site_at_… ANBG_2019_1363 seed_width 1.8   mm   
##  7 ANBG_2019  Daviesia co… site_at_… ANBG_2019_1364 seed_mass  7.77… mg   
##  8 ANBG_2019  Daviesia ep… site_at_… ANBG_2019_1365 seed_mass  69.6… mg   
##  9 ANBG_2019  Daviesia ge… site_at_… ANBG_2019_1366 seed_mass  11.6… mg   
## 10 ANBG_2019  Daviesia ge… site_at_… ANBG_2019_1367 dispersal… aril  <NA> 
## # … with 3,794 more rows, and 3 more variables: value_type <fct>,
## #   replicates <chr>, original_name <chr>

We can select particular columns from the whole or filtered dataset using select:

austraits$traits %>% 
  select(species_name, observation_id, trait_name, value)

## # A tibble: 484,158 x 4
##    species_name        observation_id  trait_name          value      
##    <chr>               <chr>           <chr>               <chr>      
##  1 Corymbia calophylla Ahrens_2019_001 leaf_area           12883.7    
##  2 Corymbia calophylla Ahrens_2019_001 leaf_delta13C       -27.98     
##  3 Corymbia calophylla Ahrens_2019_001 leaf_N_per_dry_mass 9          
##  4 Corymbia calophylla Ahrens_2019_001 modified_NDVI       0.711535497
##  5 Corymbia calophylla Ahrens_2019_001 specific_leaf_area  5.4        
##  6 Corymbia calophylla Ahrens_2019_001 water_band_index    1.060028751
##  7 Corymbia calophylla Ahrens_2019_001 wood_density        0.600120627
##  8 Corymbia calophylla Ahrens_2019_002 leaf_area           9647.7     
##  9 Corymbia calophylla Ahrens_2019_002 leaf_delta13C       -27.33     
## 10 Corymbia calophylla Ahrens_2019_002 leaf_N_per_dry_mass 16         
## # … with 484,148 more rows
…
## [1] 484158  16136  22617

# subset
traits_LS %>% count_rows()

## [1] 36659   503 13684

Merging with taxonomic data

Limited taxonomic information is provided in the main table data, only original_name (the original name provided by the authors) and species_name (the aligned taxonomic name; see species taxonomy for details). But further information is available in the table taxonomy:

austraits$taxonomy

## # A tibble: 22,617 x 9
##    species_name  genus  family  authority  TPL_ID status APC_name APC_ID APNI_ID
##    <chr>         <chr>  <chr>   <chr>      <chr>  <chr>  <chr>    <chr>  <chr>  
##  1 Abelmoschus   Abelm… Malvac… <NA>       <NA>   <NA>   <NA>     <NA>   <NA>   
##  2 Abelmoschus … Abelm… Malvac… (L.) Wigh… kew-2… Accep… Abelmos… 28979… 55929  
##  3 Abelmoschus … Abelm… Malvac… (L.) Medi… kew-2… Accep… Abelmos… 29010… 55937  
##  4 Abelmoschus … Abelm… Malvac… Medik.     kew-2… Accep… Abelmos… 29005… 55953  
##  5 Abroma augus… Abroma Malvac… (L.) L.f.  kew-2… Accep… Abroma … 29048… 199881 
##  6 Abrophyllum … Abrop… Rousse… (F.Muell.… kew-2… Accep… Abrophy… 28936… 56085  
##  7 Abrotanella … Abrot… Compos… (Hook.f.)… gcc-9… Accep… unknown  unkno… unknown
##  8 Abrotanella … Abrot… Compos… (F.Muell.… gcc-3… Accep… Abrotan… 29005… 56120  
##  9 Abrotanella … Abrot… Compos… <NA>       <NA>   <NA>   <NA>     <NA>   <NA>   
## 10 Abrus precat… Abrus  Legumi… L.         ild-2… Accep… Abrus p… 29193… 56149  
## # … with 22,607 more rows
…
names(traits2)

##  [1] "dataset_id"     "species_name"   "site_name"      "observation_id"
##  [5] "trait_name"     "value"          "unit"           "value_type"    
##  [9] "replicates"     "original_name"  "family"

Merging with location data

As with taxonomic information, limited information about location is provided in the main table data. But further information is available in the table context:

austraits$sites

## # A tibble: 16,136 x 4
##    dataset_id  site_name site_property   value     
##    <chr>       <chr>     <chr>           <chr>     
##  1 Ahrens_2019 BOO       latitude (deg)  -34.638944
##  2 Ahrens_2019 BOO       longitude (deg) 116.123806
##  3 Ahrens_2019 BOO       max temp (C)    25.6      
##  4 Ahrens_2019 BOO       MAP (mm)        1159      
##  5 Ahrens_2019 BOO       aridity index   1.05      
##  6 Ahrens_2019 BRA       latitude (deg)  -33.916389
##  7 Ahrens_2019 BRA       longitude (deg) 115.083278
##  8 Ahrens_2019 BRA       max temp (C)    26.1      
##  9 Ahrens_2019 BRA       MAP (mm)        1072      
## 10 Ahrens_2019 BRA       aridity index   0.96      
## # … with 16,126 more rows
…
## .
##  latitude (deg) longitude (deg)       collector        locality     description 
##            3502            3502            2389            2389             347 
##         geology   elevation (m)            date           stage             age 
##             166             117             113             113             110

In this example we’ll just focus on location details. Before merging in with the main data table let’s convert this data from long to wide format:

sites <- austraits$sites %>% 
  filter(site_property %in%  c("longitude (deg)","latitude (deg)")) %>% 
  spread(site_property, value)
sites

## # A tibble: 3,502 x 4
##    dataset_id  site_name `latitude (deg)` `longitude (deg)`
##    <chr>       <chr>     <chr>            <chr>            
##  1 Ahrens_2019 BOO       -34.638944       116.123806       
##  2 Ahrens_2019 BRA       -33.916389       115.083278       
##  3 Ahrens_2019 CAR       -34.419639       115.821306       
##  4 Ahrens_2019 CHID      -31.8682         116.222973       
##  5 Ahrens_2019 CRI       -34.6015         118.742665       
##  6 Ahrens_2019 HRI       -30.3114         115.201584       
##  7 Ahrens_2019 KIN       -34.081167       116.330444       
##  8 Ahrens_2019 LUP       -32.520667       116.499          
##  9 Ahrens_2019 MOG       -31.0986         116.0508938      
## 10 Ahrens_2019 PEE       -32.684667       115.742667       
## # … with 3,492 more rows
…
Converting from long to wide format

As discussed above, the main data table in austraits is distributed in long format. A long format has each measurement on a different row, and just a single column for all the value. By contrast, a dataset in wide format has data for each different trait in it’s own column. The reason we use long format is mainly for efficiency. We have data from 202 different traits, so in wide format we’d need at least this many columns. With many species, the file size gets very large very quickly. Other benefits of long format are that we can include columns for units, value_type, and replicates, which we could not in wide format (without created 3 more columns for each traits).

For many analyses, however, you’ll want to use wide format. We have therefore provided the ability to convert between the two formats. In wide format, each trait appears in it’s own column and measurements from the same observation (ideally individual, but in floras may be a species) appear on the same row.

As the entire austraits dataset is quite large, we recommend first sub-setting the data before spreading from long to wide format. You may also need to reduce the number of measurements in any one observation (see next section). For this first example we’ll use the dataset Westoby_2014.

First extract the trait data from the Westoby_2014 study:

data <- austraits$traits %>% 
  filter(dataset_id == "Westoby_2014")
data

## # A tibble: 3,888 x 10
##    dataset_id species_name site_name observation_id trait_name value unit 
##    <chr>      <chr>        <chr>     <chr>          <chr>      <chr> <chr>
##  1 Westoby_2… Acacia deal… Bothwell  Westoby_2014_… bark_thic… 0.21… mm   
##  2 Westoby_2… Acacia deal… Bothwell  Westoby_2014_… huber_val… 8.22… mm2_…
##  3 Westoby_2… Acacia deal… Bothwell  Westoby_2014_… leaf_area  6575  mm2  
##  4 Westoby_2… Acacia deal… Bothwell  Westoby_2014_… leaf_B_pe… 21.6… mg/kg
##  5 Westoby_2… Acacia deal… Bothwell  Westoby_2014_… leaf_C_pe… 523.2 mg/g 
##  6 Westoby_2… Acacia deal… Bothwell  Westoby_2014_… leaf_Ca_p… 3.31… mg/g 
##  7 Westoby_2… Acacia deal… Bothwell  Westoby_2014_… leaf_Cu_p… 13.1… mg/kg
##  8 Westoby_2… Acacia deal… Bothwell  Westoby_2014_… leaf_dark… 1.96  umol…
##  9 Westoby_2… Acacia deal… Bothwell  Westoby_2014_… leaf_dark… 0.02… umol…
## 10 Westoby_2… Acacia deal… Bothwell  Westoby_2014_… leaf_delt… -28.… per …
## # … with 3,878 more rows, and 3 more variables: value_type <fct>,
## #   replicates <chr>, original_name <chr>
Now use the inbuilt function spread_trait_data to convert from long to wide:

traits_spread <- spread_trait_data(data)

This function spreads not only the data in the column value, but also other columns. The returned object is a list with a number of wide tables:

names(traits_spread)

## [1] "value"      "unit"       "value_type" "replicates"

Looking at each of these we see a table in wide format (i.e. with each trait being a column), as well as identifying columns at the start:

traits_spread$value

## # A tibble: 140 x 38
##    dataset_id species_name site_name observation_id original_name bark_thickness
##    <chr>      <chr>        <chr>     <chr>          <chr>         <chr>         
##  1 Westoby_2… Acacia aneu… Fowlers … Westoby_2014_… Acacia aneura <NA>          
##  2 Westoby_2… Acacia coll… Round Hi… Westoby_2014_… Acacia colle… 0.16476       
##  3 Westoby_2… Acacia cras… Cardwell  Westoby_2014_… Acacia crass… 0.23161       
##  4 Westoby_2… Acacia deal… Bothwell  Westoby_2014_… Acacia dealb… 0.21691       
##  5 Westoby_2… Acacia deal… Longley   Westoby_2014_… Acacia dealb… 0.18926       
##  6 Westoby_2… Acacia flav… Cardwell  Westoby_2014_… Acacia flave… 0.20286       
##  7 Westoby_2… Acacia flav… Princess… Westoby_2014_… Acacia flave… 0.2924        
##  8 Westoby_2… Acacia havi… Round Hi… Westoby_2014_… Acacia havil… 0.22115       
##  9 Westoby_2… Acacia holo… Claravil… Westoby_2014_… Acacia holos… 0.21568       
## 10 Westoby_2… Acacia lept… Princess… Westoby_2014_… Acacia lepto… 0.21386       
## # … with 130 more rows, and 32 more variables: huber_value <chr>,
## #   leaf_area <chr>, leaf_B_per_dry_mass <chr>, leaf_C_per_dry_mass <chr>,
## #   leaf_Ca_per_dry_mass <chr>, leaf_Cu_per_dry_mass <chr>,
## #   leaf_dark_respiration_per_area <chr>,
## #   leaf_dark_respiration_per_dry_mass <chr>, leaf_delta13C <chr>,
## #   leaf_Fe_per_dry_mass <chr>, leaf_K_per_dry_mass <chr>,
## #   leaf_Mg_per_dry_mass <chr>, leaf_Mn_per_dry_mass <chr>,
## #   leaf_Mo_per_dry_mass <chr>, leaf_N_per_dry_mass <chr>,
## #   leaf_Na_per_dry_mass <chr>, leaf_P_per_dry_mass <chr>,
## #   leaf_S_per_dry_mass <chr>, leaf_specific_conductivity <chr>,
## #   leaf_transpiration_at_Asat <chr>, leaf_Zn_per_dry_mass <chr>,
## #   modulus_of_elasticity <chr>, modulus_of_rupture <chr>,
## #   photosynthetic_rate_per_area_saturated <chr>,
## #   photosynthetic_rate_per_dry_mass_saturated <chr>, plant_height <chr>,
## #   sapwood_specific_conductivity <chr>, specific_leaf_area <chr>,
## #   water_potential_midday <chr>, water_potential_predawn <chr>,
## #   water_use_efficiency <chr>, wood_density <chr>

The other tables have an identical format

traits_spread$unit

## # A tibble: 140 x 38
##    dataset_id species_name site_name observation_id original_name bark_thickness
##    <chr>      <chr>        <chr>     <chr>          <chr>         <chr>         
##  1 Westoby_2… Acacia aneu… Fowlers … Westoby_2014_… Acacia aneura <NA>          
##  2 Westoby_2… Acacia coll… Round Hi… Westoby_2014_… Acacia colle… mm            
##  3 Westoby_2… Acacia cras… Cardwell  Westoby_2014_… Acacia crass… mm            
##  4 Westoby_2… Acacia deal… Bothwell  Westoby_2014_… Acacia dealb… mm            
##  5 Westoby_2… Acacia deal… Longley   Westoby_2014_… Acacia dealb… mm            
##  6 Westoby_2… Acacia flav… Cardwell  Westoby_2014_… Acacia flave… mm            
##  7 Westoby_2… Acacia flav… Princess… Westoby_2014_… Acacia flave… mm            
##  8 Westoby_2… Acacia havi… Round Hi… Westoby_2014_… Acacia havil… mm            
##  9 Westoby_2… Acacia holo… Claravil… Westoby_2014_… Acacia holos… mm            
## 10 Westoby_2… Acacia lept… Princess… Westoby_2014_… Acacia lepto… mm            
## # … with 130 more rows, and 32 more variables: huber_value <chr>,
## #   leaf_area <chr>, leaf_B_per_dry_mass <chr>, leaf_C_per_dry_mass <chr>,
## #   leaf_Ca_per_dry_mass <chr>, leaf_Cu_per_dry_mass <chr>,
## #   leaf_dark_respiration_per_area <chr>,
## #   leaf_dark_respiration_per_dry_mass <chr>, leaf_delta13C <chr>,
## #   leaf_Fe_per_dry_mass <chr>, leaf_K_per_dry_mass <chr>,
## #   leaf_Mg_per_dry_mass <chr>, leaf_Mn_per_dry_mass <chr>,
## #   leaf_Mo_per_dry_mass <chr>, leaf_N_per_dry_mass <chr>,
## #   leaf_Na_per_dry_mass <chr>, leaf_P_per_dry_mass <chr>,
…
traits2 <- gather_trait_data(traits_spread, austraits$definitions)

## Note: Using an external vector in selections is ambiguous.
## ℹ Use `all_of(id_variables)` instead of `id_variables` to silence this message.
## ℹ See <https://tidyselect.r-lib.org/reference/faq-external-vector.html>.
## This message is displayed once per session.

This manipulation should recover the original dataset.

Original:

traits2

## # A tibble: 3,888 x 10
##    dataset_id species_name site_name observation_id trait_name value unit 
##    <chr>      <chr>        <chr>     <chr>          <chr>      <chr> <chr>
##  1 Westoby_2… Acacia deal… Bothwell  Westoby_2014_… bark_thic… 0.21… mm   
##  2 Westoby_2… Acacia deal… Bothwell  Westoby_2014_… huber_val… 8.22… mm2_…
##  3 Westoby_2… Acacia deal… Bothwell  Westoby_2014_… leaf_area  6575  mm2  
##  4 Westoby_2… Acacia deal… Bothwell  Westoby_2014_… leaf_B_pe… 21.6… mg/kg
##  5 Westoby_2… Acacia deal… Bothwell  Westoby_2014_… leaf_C_pe… 523.2 mg/g 
##  6 Westoby_2… Acacia deal… Bothwell  Westoby_2014_… leaf_Ca_p… 3.31… mg/g 
##  7 Westoby_2… Acacia deal… Bothwell  Westoby_2014_… leaf_Cu_p… 13.1… mg/kg
##  8 Westoby_2… Acacia deal… Bothwell  Westoby_2014_… leaf_dark… 1.96  umol…
##  9 Westoby_2… Acacia deal… Bothwell  Westoby_2014_… leaf_dark… 0.02… umol…
## 10 Westoby_2… Acacia deal… Bothwell  Westoby_2014_… leaf_delt… -28.… per …
## # … with 3,878 more rows, and 3 more variables: value_type <chr>,
## #   replicates <chr>, original_name <chr>
…
